{
  "min_order_amount":"0.00000010",
  "ask":"0.00022",//24hr Max buy
  "bid":"0.00020001",//24hr Min sell
  "last":"0.00022000",//Last Price
  "lastDayAgo":"0.0002",
  "vol":"29.9051",//24hr Volume
  "spread":"0",
  "buy_fee_percent":"0",
  "sell_fee_percent":"0",
  "market_name":"STEX_BTC",
  "updated_time":1518543601,
  "server_time":1518543601
}

{
  "min_order_amount":"0.00000010",
  "ask":"0.00000508",
  "bid":"0.00000471",
  "last":"0.00000495",
  "lastDayAgo":"0.0000047",
  "vol":"4596.65177452",
  "spread":"0",
  "buy_fee_percent":"0",
  "sell_fee_percent":"0",
  "market_name":"BTCN_BTC",
  "updated_time":1524575463,
  "server_time":1524575463
}

https://github.com/binance-exchange/binance-official-api-docs/blob/master/rest-api.md
https://www.binance.com/api/v1/ticker/24hr?symbol=BNBBTC
{
  "symbol": "BNBBTC",
  "priceChange": "-94.99999800",
  "priceChangePercent": "-95.960",
  "weightedAvgPrice": "0.29628482",
  "prevClosePrice": "0.10002000",
  "lastPrice": "4.00000200",
  "lastQty": "200.00000000",
  "bidPrice": "4.00000000",
  "askPrice": "4.00000200",
  "openPrice": "99.00000000",
  "highPrice": "100.00000000",
  "lowPrice": "0.10000000",
  "volume": "8913.30000000",
  "quoteVolume": "15.30000000",
  "openTime": 1499783499040,
  "closeTime": 1499869899040,
  "fristId": 28385,   // First tradeId
  "lastId": 28460,    // Last tradeId
  "count": 76         // Trade count
}

https://www.okex.com/api/v1/ticker.do?symbol=ltc_btc
{
	"date":"1410431279",
	"ticker":{
		"buy":"33.15",
		"high":"34.15",
		"last":"33.15",
		"low":"32.05",
		"sell":"33.16",
		"vol":"10532696.39199642"
	}
}

http://api.huobipro.com/market/detail/merged?symbol=ethusdt
{
"status":"ok",
"ch":"market.ethusdt.detail.merged",
"ts":1499225276950,
"tick":{
  "id":1499225271,
  "ts":1499225271000,
  "close":1885.0000,
  "open":1960.0000,
  "high":1985.0000,
  "low":1856.0000,
  "amount":81486.2926,
  "count":42122,
  "vol":157052744.85708200,
  "ask":[1885.0000,21.8804],
  "bid":[1884.0000,1.6702]
  }
}
